<?xml version="1.0" encoding="UTF-8"?>
<!DOCTYPE svg PUBLIC '-//W3C//DTD SVG 1.0//EN'
          'http://www.w3.org/TR/2001/REC-SVG-20010904/DTD/svg10.dtd'>
<svg fill-opacity="0" xmlns:xlink="http://www.w3.org/1999/xlink" color-rendering="auto" color-interpolation="auto" text-rendering="auto" stroke="rgb(0,0,0)" stroke-linecap="square" width="599" stroke-miterlimit="10" shape-rendering="auto" stroke-opacity="0" fill="rgb(0,0,0)" stroke-dasharray="none" font-weight="normal" stroke-width="1" height="574" xmlns="http://www.w3.org/2000/svg" font-family="&apos;Dialog&apos;" font-style="normal" stroke-linejoin="miter" font-size="12" stroke-dashoffset="0" image-rendering="auto"
><!--Generated by the Batik Graphics2D SVG Generator--><defs id="genericDefs"
  /><g
  ><defs id="defs1"
    ><clipPath clipPathUnits="userSpaceOnUse" id="clipPath1"
      ><path d="M-7 -7 L106 -7 L106 579 L-7 579 L-7 -7 Z"
      /></clipPath
      ><clipPath clipPathUnits="userSpaceOnUse" id="clipPath2"
      ><path d="M-7 -7 L110 -7 L110 579 L-7 579 L-7 -7 Z"
      /></clipPath
      ><clipPath clipPathUnits="userSpaceOnUse" id="clipPath3"
      ><path d="M-7 -7 L19 -7 L19 90 L-7 90 L-7 -7 Z"
      /></clipPath
      ><clipPath clipPathUnits="userSpaceOnUse" id="clipPath4"
      ><path d="M-7 -7 L19 -7 L19 108 L-7 108 L-7 -7 Z"
      /></clipPath
      ><clipPath clipPathUnits="userSpaceOnUse" id="clipPath5"
      ><path d="M-7 -7 L19 -7 L19 35 L-7 35 L-7 -7 Z"
      /></clipPath
      ><clipPath clipPathUnits="userSpaceOnUse" id="clipPath6"
      ><path d="M-7 -7 L19 -7 L19 123 L-7 123 L-7 -7 Z"
      /></clipPath
      ><clipPath clipPathUnits="userSpaceOnUse" id="clipPath7"
      ><path d="M-7 -7 L19 -7 L19 40 L-7 40 L-7 -7 Z"
      /></clipPath
      ><clipPath clipPathUnits="userSpaceOnUse" id="clipPath8"
      ><path d="M-7 -7 L399 -7 L399 135 L-7 135 L-7 -7 Z"
      /></clipPath
      ><clipPath clipPathUnits="userSpaceOnUse" id="clipPath9"
      ><path d="M-7 -7 L-7 135 L399 135 L399 -7 Z"
      /></clipPath
      ><clipPath clipPathUnits="userSpaceOnUse" id="clipPath10"
      ><path d="M0 0 L0 17 L39 17 L39 0 Z"
      /></clipPath
      ><clipPath clipPathUnits="userSpaceOnUse" id="clipPath11"
      ><path d="M-7 -7 L19 -7 L19 73 L-7 73 L-7 -7 Z"
      /></clipPath
      ><clipPath clipPathUnits="userSpaceOnUse" id="clipPath12"
      ><path d="M-7 -7 L19 -7 L19 23 L-7 23 L-7 -7 Z"
      /></clipPath
      ><clipPath clipPathUnits="userSpaceOnUse" id="clipPath13"
      ><path d="M-95 -14 L190 -14 L190 28 L-95 28 L-95 -14 Z"
      /></clipPath
      ><clipPath clipPathUnits="userSpaceOnUse" id="clipPath14"
      ><path d="M-99 -14 L198 -14 L198 28 L-99 28 L-99 -14 Z"
      /></clipPath
      ><clipPath clipPathUnits="userSpaceOnUse" id="clipPath15"
      ><path d="M0 0 L343 0 L343 104 L0 104 L0 0 Z"
      /></clipPath
      ><clipPath clipPathUnits="userSpaceOnUse" id="clipPath16"
      ><path d="M229 31 L229 45 L109 45 L109 31 ZM210 84 L210 98 L130 98 L130 84 ZM0 0 L0 104 L343 104 L343 0 Z"
      /></clipPath
      ><clipPath clipPathUnits="userSpaceOnUse" id="clipPath17"
      ><path d="M210 31 L210 45 L130 45 L130 31 ZM0 0 L0 104 L343 104 L343 0 Z"
      /></clipPath
      ><clipPath clipPathUnits="userSpaceOnUse" id="clipPath18"
      ><path d="M275 31 L275 45 L60 45 L60 31 ZM0 0 L0 104 L339 104 L339 98 L343 98 L343 0 Z"
      /></clipPath
      ><clipPath clipPathUnits="userSpaceOnUse" id="clipPath19"
      ><path d="M0 0 L134 0 L134 124 L0 124 L0 0 Z"
      /></clipPath
      ><clipPath clipPathUnits="userSpaceOnUse" id="clipPath20"
      ><path d="M0 0 L0 124 L134 124 L134 67 L92 67 L92 53 L134 53 L134 0 Z"
      /></clipPath
      ><clipPath clipPathUnits="userSpaceOnUse" id="clipPath21"
      ><path d="M217 31 L217 45 L120 45 L120 31 ZM0 0 L0 104 L343 104 L343 31 L339 31 L339 17 L343 17 L343 0 Z"
      /></clipPath
      ><clipPath clipPathUnits="userSpaceOnUse" id="clipPath22"
      ><path d="M237 31 L237 45 L100 45 L100 31 ZM0 0 L0 104 L343 104 L343 97 L338 97 L338 83 L343 83 L343 0 Z"
      /></clipPath
      ><clipPath clipPathUnits="userSpaceOnUse" id="clipPath23"
      ><path d="M0 0 L0 124 L104 124 L104 116 L134 116 L134 68 L91 68 L91 54 L134 54 L134 0 Z"
      /></clipPath
      ><clipPath clipPathUnits="userSpaceOnUse" id="clipPath24"
      ><path d="M0 0 L345 0 L345 104 L0 104 L0 0 Z"
      /></clipPath
      ><clipPath clipPathUnits="userSpaceOnUse" id="clipPath25"
      ><path d="M235 31 L235 45 L104 45 L104 31 ZM0 0 L0 104 L345 104 L345 0 Z"
      /></clipPath
      ><clipPath clipPathUnits="userSpaceOnUse" id="clipPath26"
      ><path d="M-131 -14 L262 -14 L262 28 L-131 28 L-131 -14 Z"
      /></clipPath
      ><clipPath clipPathUnits="userSpaceOnUse" id="clipPath27"
      ><path d="M-147 -14 L294 -14 L294 28 L-147 28 L-147 -14 Z"
      /></clipPath
      ><clipPath clipPathUnits="userSpaceOnUse" id="clipPath28"
      ><path d="M-137 -14 L274 -14 L274 28 L-137 28 L-137 -14 Z"
      /></clipPath
      ><clipPath clipPathUnits="userSpaceOnUse" id="clipPath29"
      ><path d="M-97 -14 L194 -14 L194 28 L-97 28 L-97 -14 Z"
      /></clipPath
      ><clipPath clipPathUnits="userSpaceOnUse" id="clipPath30"
      ><path d="M-150 -14 L300 -14 L300 28 L-150 28 L-150 -14 Z"
      /></clipPath
      ><clipPath clipPathUnits="userSpaceOnUse" id="clipPath31"
      ><path d="M-215 -14 L430 -14 L430 28 L-215 28 L-215 -14 Z"
      /></clipPath
      ><clipPath clipPathUnits="userSpaceOnUse" id="clipPath32"
      ><path d="M-80 -14 L160 -14 L160 28 L-80 28 L-80 -14 Z"
      /></clipPath
      ><clipPath clipPathUnits="userSpaceOnUse" id="clipPath33"
      ><path d="M-120 -14 L240 -14 L240 28 L-120 28 L-120 -14 Z"
      /></clipPath
    ></defs
    ><g fill="white" text-rendering="geometricPrecision" fill-opacity="1" stroke-opacity="1" stroke="white"
    ><rect x="0" width="599" height="574" y="0" stroke="none"
    /></g
    ><g font-size="11" transform="translate(2,2)" fill-opacity="1" fill="rgb(122,207,245)" text-rendering="geometricPrecision" image-rendering="optimizeQuality" font-family="sans-serif" stroke="rgb(122,207,245)" stroke-opacity="1"
    ><rect x="0" width="94" height="35" y="0" clip-path="url(#clipPath1)" stroke="none"
    /></g
    ><g stroke-linecap="butt" font-size="11" transform="translate(2,2)" fill-opacity="1" fill="black" text-rendering="geometricPrecision" image-rendering="optimizeQuality" font-family="sans-serif" stroke-linejoin="round" stroke="black" stroke-opacity="1" stroke-miterlimit="0"
    ><rect fill="none" x="0" width="94" height="35" y="0" clip-path="url(#clipPath1)"
      /><line clip-path="url(#clipPath1)" fill="none" x1="47" x2="47" y1="35" y2="568" stroke-linejoin="bevel" stroke-dasharray="8,3"
    /></g
    ><g font-size="11" transform="translate(247,2)" fill-opacity="1" fill="rgb(122,207,245)" text-rendering="geometricPrecision" image-rendering="optimizeQuality" font-family="sans-serif" stroke="rgb(122,207,245)" stroke-opacity="1"
    ><rect x="0" width="98" height="35" y="0" clip-path="url(#clipPath2)" stroke="none"
    /></g
    ><g stroke-linecap="butt" font-size="11" transform="translate(247,2)" fill-opacity="1" fill="black" text-rendering="geometricPrecision" image-rendering="optimizeQuality" font-family="sans-serif" stroke-linejoin="round" stroke="black" stroke-opacity="1" stroke-miterlimit="0"
    ><rect fill="none" x="0" width="98" height="35" y="0" clip-path="url(#clipPath2)"
      /><line clip-path="url(#clipPath2)" fill="none" x1="49" x2="49" y1="35" y2="568" stroke-linejoin="bevel" stroke-dasharray="8,3"
    /></g
    ><g font-size="11" transform="translate(496,2)" fill-opacity="1" fill="rgb(122,207,245)" text-rendering="geometricPrecision" image-rendering="optimizeQuality" font-family="sans-serif" stroke="rgb(122,207,245)" stroke-opacity="1"
    ><rect x="0" width="98" height="35" y="0" clip-path="url(#clipPath2)" stroke="none"
    /></g
    ><g stroke-linecap="butt" font-size="11" transform="translate(496,2)" fill-opacity="1" fill="black" text-rendering="geometricPrecision" image-rendering="optimizeQuality" font-family="sans-serif" stroke-linejoin="round" stroke="black" stroke-opacity="1" stroke-miterlimit="0"
    ><rect fill="none" x="0" width="98" height="35" y="0" clip-path="url(#clipPath2)"
      /><line clip-path="url(#clipPath2)" fill="none" x1="49" x2="49" y1="35" y2="568" stroke-linejoin="bevel" stroke-dasharray="8,3"
    /></g
    ><g font-size="11" transform="translate(45,99)" fill-opacity="1" fill="rgb(122,207,245)" text-rendering="geometricPrecision" image-rendering="optimizeQuality" font-family="sans-serif" stroke="rgb(122,207,245)" stroke-opacity="1"
    ><rect x="0" width="8" height="79" y="0" clip-path="url(#clipPath3)" stroke="none"
    /></g
    ><g stroke-linecap="butt" font-size="11" transform="translate(45,99)" fill-opacity="1" fill="black" text-rendering="geometricPrecision" image-rendering="optimizeQuality" font-family="sans-serif" stroke-linejoin="round" stroke="black" stroke-opacity="1" stroke-miterlimit="0"
    ><rect fill="none" x="0" width="8" height="79" y="0" clip-path="url(#clipPath3)"
    /></g
    ><g font-size="11" transform="translate(292,99)" fill-opacity="1" fill="rgb(122,207,245)" text-rendering="geometricPrecision" image-rendering="optimizeQuality" font-family="sans-serif" stroke="rgb(122,207,245)" stroke-opacity="1"
    ><rect x="0" width="8" height="97" y="0" clip-path="url(#clipPath4)" stroke="none"
    /></g
    ><g stroke-linecap="butt" font-size="11" transform="translate(292,99)" fill-opacity="1" fill="black" text-rendering="geometricPrecision" image-rendering="optimizeQuality" font-family="sans-serif" stroke-linejoin="round" stroke="black" stroke-opacity="1" stroke-miterlimit="0"
    ><rect fill="none" x="0" width="8" height="97" y="0" clip-path="url(#clipPath4)"
    /></g
    ><g font-size="11" transform="translate(45,229)" fill-opacity="1" fill="rgb(122,207,245)" text-rendering="geometricPrecision" image-rendering="optimizeQuality" font-family="sans-serif" stroke="rgb(122,207,245)" stroke-opacity="1"
    ><rect x="0" width="8" height="24" y="0" clip-path="url(#clipPath5)" stroke="none"
    /></g
    ><g stroke-linecap="butt" font-size="11" transform="translate(45,229)" fill-opacity="1" fill="black" text-rendering="geometricPrecision" image-rendering="optimizeQuality" font-family="sans-serif" stroke-linejoin="round" stroke="black" stroke-opacity="1" stroke-miterlimit="0"
    ><rect fill="none" x="0" width="8" height="24" y="0" clip-path="url(#clipPath5)"
    /></g
    ><g font-size="11" transform="translate(292,229)" fill-opacity="1" fill="rgb(122,207,245)" text-rendering="geometricPrecision" image-rendering="optimizeQuality" font-family="sans-serif" stroke="rgb(122,207,245)" stroke-opacity="1"
    ><rect x="0" width="8" height="112" y="0" clip-path="url(#clipPath6)" stroke="none"
    /></g
    ><g stroke-linecap="butt" font-size="11" transform="translate(292,229)" fill-opacity="1" fill="black" text-rendering="geometricPrecision" image-rendering="optimizeQuality" font-family="sans-serif" stroke-linejoin="round" stroke="black" stroke-opacity="1" stroke-miterlimit="0"
    ><rect fill="none" x="0" width="8" height="112" y="0" clip-path="url(#clipPath6)"
    /></g
    ><g font-size="11" transform="translate(45,310)" fill-opacity="1" fill="rgb(122,207,245)" text-rendering="geometricPrecision" image-rendering="optimizeQuality" font-family="sans-serif" stroke="rgb(122,207,245)" stroke-opacity="1"
    ><rect x="0" width="8" height="29" y="0" clip-path="url(#clipPath7)" stroke="none"
    /></g
    ><g stroke-linecap="butt" font-size="11" transform="translate(45,310)" fill-opacity="1" fill="black" text-rendering="geometricPrecision" image-rendering="optimizeQuality" font-family="sans-serif" stroke-linejoin="round" stroke="black" stroke-opacity="1" stroke-miterlimit="0"
    ><rect fill="none" x="0" width="8" height="29" y="0" clip-path="url(#clipPath7)"
    /></g
    ><g stroke-linecap="butt" font-size="11" transform="translate(24,356)" fill-opacity="1" fill="black" text-rendering="geometricPrecision" image-rendering="optimizeQuality" font-family="sans-serif" stroke-linejoin="round" stroke="black" stroke-opacity="1" stroke-miterlimit="0"
    ><rect fill="none" x="0" width="388" height="124" y="0" clip-path="url(#clipPath9)"
    /></g
    ><g font-size="11" transform="translate(24,356)" fill-opacity="1" fill="white" text-rendering="geometricPrecision" image-rendering="optimizeQuality" font-family="sans-serif" stroke="white" stroke-opacity="1"
    ><path d="M38 0 L38 8 L32 16 L0 16 L0 0 Z" stroke="none" clip-path="url(#clipPath9)"
    /></g
    ><g stroke-linecap="butt" font-size="11" transform="translate(24,356)" fill-opacity="1" fill="black" text-rendering="geometricPrecision" image-rendering="optimizeQuality" font-family="sans-serif" stroke-linejoin="round" stroke="black" stroke-opacity="1" stroke-miterlimit="0"
    ><path fill="none" d="M38 0 L38 8 L32 16 L0 16 L0 0 Z" clip-path="url(#clipPath9)"
    /></g
    ><g font-size="11" transform="translate(24,356)" fill-opacity="1" fill="black" text-rendering="geometricPrecision" image-rendering="optimizeQuality" font-family="sans-serif" stroke="black" stroke-opacity="1"
    ><text x="10" xml:space="preserve" y="11" clip-path="url(#clipPath10)" stroke="none"
      >opt</text
    ></g
    ><g font-size="11" transform="translate(45,408)" fill-opacity="1" fill="rgb(122,207,245)" text-rendering="geometricPrecision" image-rendering="optimizeQuality" font-family="sans-serif" stroke="rgb(122,207,245)" stroke-opacity="1"
    ><rect x="0" width="8" height="24" y="0" clip-path="url(#clipPath5)" stroke="none"
    /></g
    ><g stroke-linecap="butt" font-size="11" transform="translate(45,408)" fill-opacity="1" fill="black" text-rendering="geometricPrecision" image-rendering="optimizeQuality" font-family="sans-serif" stroke-linejoin="round" stroke="black" stroke-opacity="1" stroke-miterlimit="0"
    ><rect fill="none" x="0" width="8" height="24" y="0" clip-path="url(#clipPath5)"
    /></g
    ><g font-size="11" transform="translate(292,408)" fill-opacity="1" fill="rgb(122,207,245)" text-rendering="geometricPrecision" image-rendering="optimizeQuality" font-family="sans-serif" stroke="rgb(122,207,245)" stroke-opacity="1"
    ><rect x="0" width="8" height="62" y="0" clip-path="url(#clipPath11)" stroke="none"
    /></g
    ><g stroke-linecap="butt" font-size="11" transform="translate(292,408)" fill-opacity="1" fill="black" text-rendering="geometricPrecision" image-rendering="optimizeQuality" font-family="sans-serif" stroke-linejoin="round" stroke="black" stroke-opacity="1" stroke-miterlimit="0"
    ><rect fill="none" x="0" width="8" height="62" y="0" clip-path="url(#clipPath11)"
    /></g
    ><g font-size="11" transform="translate(541,522)" fill-opacity="1" fill="rgb(122,207,245)" text-rendering="geometricPrecision" image-rendering="optimizeQuality" font-family="sans-serif" stroke="rgb(122,207,245)" stroke-opacity="1"
    ><rect x="0" width="8" height="12" y="0" clip-path="url(#clipPath12)" stroke="none"
    /></g
    ><g stroke-linecap="butt" font-size="11" transform="translate(541,522)" fill-opacity="1" fill="black" text-rendering="geometricPrecision" image-rendering="optimizeQuality" font-family="sans-serif" stroke-linejoin="round" stroke="black" stroke-opacity="1" stroke-miterlimit="0"
    ><rect fill="none" x="0" width="8" height="12" y="0" clip-path="url(#clipPath12)"
    /></g
    ><g font-size="11" transform="translate(292,522)" fill-opacity="1" fill="rgb(122,207,245)" text-rendering="geometricPrecision" image-rendering="optimizeQuality" font-family="sans-serif" stroke="rgb(122,207,245)" stroke-opacity="1"
    ><rect x="0" width="8" height="24" y="0" clip-path="url(#clipPath5)" stroke="none"
    /></g
    ><g stroke-linecap="butt" font-size="11" transform="translate(292,522)" fill-opacity="1" fill="black" text-rendering="geometricPrecision" image-rendering="optimizeQuality" font-family="sans-serif" stroke-linejoin="round" stroke="black" stroke-opacity="1" stroke-miterlimit="0"
    ><rect fill="none" x="0" width="8" height="24" y="0" clip-path="url(#clipPath5)"
    /></g
    ><g font-size="11" transform="translate(2,2)" fill-opacity="1" fill="black" text-rendering="geometricPrecision" image-rendering="optimizeQuality" font-family="sans-serif" stroke="black" stroke-opacity="1"
    ><text x="9" xml:space="preserve" y="11" clip-path="url(#clipPath13)" stroke="none"
      >Administrator</text
    ></g
    ><g font-size="11" transform="translate(247,2)" fill-opacity="1" fill="black" text-rendering="geometricPrecision" image-rendering="optimizeQuality" font-family="sans-serif" stroke="black" stroke-opacity="1"
    ><text x="30" xml:space="preserve" y="11" clip-path="url(#clipPath14)" stroke="none"
      >Sistem</text
    ></g
    ><g font-size="11" transform="translate(496,2)" fill-opacity="1" fill="black" text-rendering="geometricPrecision" image-rendering="optimizeQuality" font-family="sans-serif" stroke="black" stroke-opacity="1"
    ><text x="30" xml:space="preserve" y="11" clip-path="url(#clipPath14)" stroke="none"
      >Učenik</text
    ></g
    ><g stroke-linecap="butt" font-size="11" transform="translate(3,49)" fill-opacity="1" fill="black" text-rendering="geometricPrecision" image-rendering="optimizeQuality" font-family="sans-serif" stroke-linejoin="round" stroke="black" stroke-opacity="1"
    ><line y2="50" fill="none" x1="50" clip-path="url(#clipPath16)" x2="289" y1="50"
      /><line y2="44" fill="none" x1="289" clip-path="url(#clipPath16)" x2="277" y1="50"
      /><line y2="56" fill="none" x1="289" clip-path="url(#clipPath16)" x2="277" y1="50"
    /></g
    ><g fill-opacity="1" text-rendering="geometricPrecision" stroke="black" stroke-linecap="butt" transform="translate(3,102)" stroke-miterlimit="0" stroke-opacity="1" fill="black" stroke-dasharray="8,3" font-family="sans-serif" stroke-linejoin="round" font-size="11" image-rendering="optimizeQuality"
    ><line y2="50" fill="none" x1="289" clip-path="url(#clipPath17)" x2="50" y1="50"
      /><line clip-path="url(#clipPath17)" fill="none" x1="50" x2="62" y1="50" y2="56" stroke-dasharray="none" stroke-miterlimit="10"
      /><line clip-path="url(#clipPath17)" fill="none" x1="50" x2="62" y1="50" y2="44" stroke-dasharray="none" stroke-miterlimit="10"
    /></g
    ><g stroke-linecap="butt" font-size="11" transform="translate(3,179)" fill-opacity="1" fill="black" text-rendering="geometricPrecision" image-rendering="optimizeQuality" font-family="sans-serif" stroke-linejoin="round" stroke="black" stroke-opacity="1"
    ><line y2="50" fill="none" x1="50" clip-path="url(#clipPath18)" x2="289" y1="50"
      /><line y2="44" fill="none" x1="289" clip-path="url(#clipPath18)" x2="277" y1="50"
      /><line y2="56" fill="none" x1="289" clip-path="url(#clipPath18)" x2="277" y1="50"
    /></g
    ><g stroke-linecap="butt" font-size="11" transform="translate(250,224)" fill-opacity="1" fill="black" text-rendering="geometricPrecision" image-rendering="optimizeQuality" font-family="sans-serif" stroke-linejoin="round" stroke="black" stroke-opacity="1"
    ><line y2="50" fill="none" x1="50" clip-path="url(#clipPath20)" x2="80" y1="50"
      /><line y2="70" fill="none" x1="80" clip-path="url(#clipPath20)" x2="80" y1="50"
      /><line y2="70" fill="none" x1="80" clip-path="url(#clipPath20)" x2="50" y1="70"
      /><line y2="76" fill="none" x1="50" clip-path="url(#clipPath20)" x2="62" y1="70"
      /><line y2="64" fill="none" x1="50" clip-path="url(#clipPath20)" x2="62" y1="70"
    /></g
    ><g fill-opacity="1" text-rendering="geometricPrecision" stroke="black" stroke-linecap="butt" transform="translate(3,260)" stroke-miterlimit="0" stroke-opacity="1" fill="black" stroke-dasharray="8,3" font-family="sans-serif" stroke-linejoin="round" font-size="11" image-rendering="optimizeQuality"
    ><line y2="50" fill="none" x1="289" clip-path="url(#clipPath21)" x2="50" y1="50"
      /><line clip-path="url(#clipPath21)" fill="none" x1="50" x2="62" y1="50" y2="56" stroke-dasharray="none" stroke-miterlimit="10"
      /><line clip-path="url(#clipPath21)" fill="none" x1="50" x2="62" y1="50" y2="44" stroke-dasharray="none" stroke-miterlimit="10"
    /></g
    ><g stroke-linecap="butt" font-size="11" transform="translate(3,358)" fill-opacity="1" fill="black" text-rendering="geometricPrecision" image-rendering="optimizeQuality" font-family="sans-serif" stroke-linejoin="round" stroke="black" stroke-opacity="1"
    ><line y2="50" fill="none" x1="50" clip-path="url(#clipPath22)" x2="289" y1="50"
      /><line y2="44" fill="none" x1="289" clip-path="url(#clipPath22)" x2="277" y1="50"
      /><line y2="56" fill="none" x1="289" clip-path="url(#clipPath22)" x2="277" y1="50"
    /></g
    ><g stroke-linecap="butt" font-size="11" transform="translate(250,387)" fill-opacity="1" fill="black" text-rendering="geometricPrecision" image-rendering="optimizeQuality" font-family="sans-serif" stroke-linejoin="round" stroke="black" stroke-opacity="1"
    ><line y2="50" fill="none" x1="50" clip-path="url(#clipPath23)" x2="80" y1="50"
      /><line y2="70" fill="none" x1="80" clip-path="url(#clipPath23)" x2="80" y1="50"
      /><line y2="70" fill="none" x1="80" clip-path="url(#clipPath23)" x2="50" y1="70"
      /><line y2="76" fill="none" x1="50" clip-path="url(#clipPath23)" x2="62" y1="70"
      /><line y2="64" fill="none" x1="50" clip-path="url(#clipPath23)" x2="62" y1="70"
    /></g
    ><g stroke-linecap="butt" font-size="11" transform="translate(250,472)" fill-opacity="1" fill="black" text-rendering="geometricPrecision" image-rendering="optimizeQuality" font-family="sans-serif" stroke-linejoin="round" stroke="black" stroke-opacity="1"
    ><line y2="50" fill="none" x1="50" clip-path="url(#clipPath25)" x2="291" y1="50"
      /><line y2="44" fill="none" x1="291" clip-path="url(#clipPath25)" x2="279" y1="50"
      /><line y2="56" fill="none" x1="291" clip-path="url(#clipPath25)" x2="279" y1="50"
    /></g
    ><g font-size="11" transform="translate(354,503)" fill-opacity="1" fill="white" text-rendering="geometricPrecision" image-rendering="optimizeQuality" font-family="sans-serif" stroke="white" stroke-opacity="1"
    ><rect x="0" width="131" height="14" y="0" clip-path="url(#clipPath26)" stroke="none"
      /><text fill="black" x="9" xml:space="preserve" y="11" clip-path="url(#clipPath26)" stroke="none"
      >4: posaljiRaspored()</text
    ></g
    ><g font-size="11" transform="translate(341,441)" fill-opacity="1" fill="white" text-rendering="geometricPrecision" image-rendering="optimizeQuality" font-family="sans-serif" stroke="white" stroke-opacity="1"
    ><rect x="0" width="147" height="14" y="0" clip-path="url(#clipPath27)" stroke="none"
      /><text fill="black" x="10" xml:space="preserve" y="11" clip-path="url(#clipPath27)" stroke="none"
      >3.1: azurirajRaspored()</text
    ></g
    ><g font-size="11" transform="translate(103,389)" fill-opacity="1" fill="white" text-rendering="geometricPrecision" image-rendering="optimizeQuality" font-family="sans-serif" stroke="white" stroke-opacity="1"
    ><rect x="0" width="137" height="14" y="0" clip-path="url(#clipPath28)" stroke="none"
      /><text fill="black" x="9" xml:space="preserve" y="11" clip-path="url(#clipPath28)" stroke="none"
      >3: azurirajRaspored()</text
    ></g
    ><g font-size="11" transform="translate(123,291)" fill-opacity="1" fill="white" text-rendering="geometricPrecision" image-rendering="optimizeQuality" font-family="sans-serif" stroke="white" stroke-opacity="1"
    ><rect x="0" width="97" height="14" y="0" clip-path="url(#clipPath29)" stroke="none"
      /><text fill="black" x="10" xml:space="preserve" y="11" clip-path="url(#clipPath29)" stroke="none"
      >2.2: Raspored</text
    ></g
    ><g font-size="11" transform="translate(342,277)" fill-opacity="1" fill="white" text-rendering="geometricPrecision" image-rendering="optimizeQuality" font-family="sans-serif" stroke="white" stroke-opacity="1"
    ><rect x="0" width="150" height="14" y="0" clip-path="url(#clipPath30)" stroke="none"
      /><text fill="black" x="9" xml:space="preserve" y="11" clip-path="url(#clipPath30)" stroke="none"
      >2.1: generisiRaspored()</text
    ></g
    ><g font-size="11" transform="translate(63,210)" fill-opacity="1" fill="white" text-rendering="geometricPrecision" image-rendering="optimizeQuality" font-family="sans-serif" stroke="white" stroke-opacity="1"
    ><rect x="0" width="215" height="14" y="0" clip-path="url(#clipPath31)" stroke="none"
      /><text fill="black" x="9" xml:space="preserve" y="11" clip-path="url(#clipPath31)" stroke="none"
      >2: zahtevajGenerisanjeRasporeda()</text
    ></g
    ><g font-size="11" transform="translate(133,133)" fill-opacity="1" fill="white" text-rendering="geometricPrecision" image-rendering="optimizeQuality" font-family="sans-serif" stroke="white" stroke-opacity="1"
    ><rect x="0" width="80" height="14" y="0" clip-path="url(#clipPath32)" stroke="none"
      /><text fill="black" x="10" xml:space="preserve" y="11" clip-path="url(#clipPath32)" stroke="none"
      >1.1: Forma</text
    ></g
    ><g font-size="11" transform="translate(112,80)" fill-opacity="1" fill="white" text-rendering="geometricPrecision" image-rendering="optimizeQuality" font-family="sans-serif" stroke="white" stroke-opacity="1"
    ><rect x="0" width="120" height="14" y="0" clip-path="url(#clipPath33)" stroke="none"
      /><text fill="black" x="9" xml:space="preserve" y="11" clip-path="url(#clipPath33)" stroke="none"
      >1: dohvatiFormu()</text
    ></g
    ><g font-size="10" fill-opacity="1" fill="rgb(120,120,120)" text-rendering="geometricPrecision" image-rendering="optimizeQuality" stroke="rgb(120,120,120)" stroke-opacity="1"
    ></g
  ></g
></svg
>
