<?xml version="1.0" encoding="UTF-8"?>
<!DOCTYPE svg PUBLIC '-//W3C//DTD SVG 1.0//EN'
          'http://www.w3.org/TR/2001/REC-SVG-20010904/DTD/svg10.dtd'>
<svg fill-opacity="0" xmlns:xlink="http://www.w3.org/1999/xlink" color-rendering="auto" color-interpolation="auto" text-rendering="auto" stroke="rgb(0,0,0)" stroke-linecap="square" width="760" stroke-miterlimit="10" shape-rendering="auto" stroke-opacity="0" fill="rgb(0,0,0)" stroke-dasharray="none" font-weight="normal" stroke-width="1" height="654" xmlns="http://www.w3.org/2000/svg" font-family="&apos;Dialog&apos;" font-style="normal" stroke-linejoin="miter" font-size="12" stroke-dashoffset="0" image-rendering="auto"
><!--Generated by the Batik Graphics2D SVG Generator--><defs id="genericDefs"
  /><g
  ><defs id="defs1"
    ><clipPath clipPathUnits="userSpaceOnUse" id="clipPath1"
      ><path d="M-7 -7 L216 -7 L216 92 L-7 92 L-7 -7 Z"
      /></clipPath
      ><clipPath clipPathUnits="userSpaceOnUse" id="clipPath2"
      ><path d="M0 0 L0 41 L205 41 L205 0 Z"
      /></clipPath
      ><clipPath clipPathUnits="userSpaceOnUse" id="clipPath3"
      ><path d="M0 0 L0 20 L185 20 L185 0 Z"
      /></clipPath
      ><clipPath clipPathUnits="userSpaceOnUse" id="clipPath4"
      ><path d="M0 0 L0 20 L20 20 L20 0 Z"
      /></clipPath
      ><clipPath clipPathUnits="userSpaceOnUse" id="clipPath5"
      ><path d="M-7 -7 L216 -7 L216 81 L-7 81 L-7 -7 Z"
      /></clipPath
      ><clipPath clipPathUnits="userSpaceOnUse" id="clipPath6"
      ><path d="M0 0 L0 30 L205 30 L205 0 Z"
      /></clipPath
      ><clipPath clipPathUnits="userSpaceOnUse" id="clipPath7"
      ><path d="M-7 -7 L127 -7 L127 51 L-7 51 L-7 -7 Z"
      /></clipPath
      ><clipPath clipPathUnits="userSpaceOnUse" id="clipPath8"
      ><path d="M0 0 L0 40 L116 40 L116 0 Z"
      /></clipPath
      ><clipPath clipPathUnits="userSpaceOnUse" id="clipPath9"
      ><path d="M-7 -7 L140 -7 L140 52 L-7 52 L-7 -7 Z"
      /></clipPath
      ><clipPath clipPathUnits="userSpaceOnUse" id="clipPath10"
      ><path d="M0 0 L0 41 L97 41 L97 0 Z"
      /></clipPath
      ><clipPath clipPathUnits="userSpaceOnUse" id="clipPath11"
      ><path d="M0 0 L0 41 L32 41 L32 0 Z"
      /></clipPath
      ><clipPath clipPathUnits="userSpaceOnUse" id="clipPath12"
      ><path d="M-7 -7 L140 -7 L140 51 L-7 51 L-7 -7 Z"
      /></clipPath
      ><clipPath clipPathUnits="userSpaceOnUse" id="clipPath13"
      ><path d="M0 0 L0 40 L129 40 L129 0 Z"
      /></clipPath
      ><clipPath clipPathUnits="userSpaceOnUse" id="clipPath14"
      ><path d="M-7 -7 L116 -7 L116 51 L-7 51 L-7 -7 Z"
      /></clipPath
      ><clipPath clipPathUnits="userSpaceOnUse" id="clipPath15"
      ><path d="M0 0 L0 40 L105 40 L105 0 Z"
      /></clipPath
      ><clipPath clipPathUnits="userSpaceOnUse" id="clipPath16"
      ><path d="M-7 -7 L101 -7 L101 51 L-7 51 L-7 -7 Z"
      /></clipPath
      ><clipPath clipPathUnits="userSpaceOnUse" id="clipPath17"
      ><path d="M0 0 L0 40 L90 40 L90 0 Z"
      /></clipPath
      ><clipPath clipPathUnits="userSpaceOnUse" id="clipPath18"
      ><path d="M-7 -7 L155 -7 L155 51 L-7 51 L-7 -7 Z"
      /></clipPath
      ><clipPath clipPathUnits="userSpaceOnUse" id="clipPath19"
      ><path d="M0 0 L0 40 L144 40 L144 0 Z"
      /></clipPath
      ><clipPath clipPathUnits="userSpaceOnUse" id="clipPath20"
      ><path d="M0 0 L267 0 L267 142 L0 142 L0 0 Z"
      /></clipPath
      ><clipPath clipPathUnits="userSpaceOnUse" id="clipPath21"
      ><path d="M0 0 L0 142 L267 142 L267 0 Z"
      /></clipPath
      ><clipPath clipPathUnits="userSpaceOnUse" id="clipPath22"
      ><path d="M0 0 L282 0 L282 143 L0 143 L0 0 Z"
      /></clipPath
      ><clipPath clipPathUnits="userSpaceOnUse" id="clipPath23"
      ><path d="M0 0 L0 143 L282 143 L282 0 Z"
      /></clipPath
      ><clipPath clipPathUnits="userSpaceOnUse" id="clipPath24"
      ><path d="M0 0 L282 0 L282 136 L0 136 L0 0 Z"
      /></clipPath
      ><clipPath clipPathUnits="userSpaceOnUse" id="clipPath25"
      ><path d="M0 0 L0 136 L282 136 L282 0 Z"
      /></clipPath
      ><clipPath clipPathUnits="userSpaceOnUse" id="clipPath26"
      ><path d="M0 0 L241 0 L241 244 L0 244 L0 0 Z"
      /></clipPath
      ><clipPath clipPathUnits="userSpaceOnUse" id="clipPath27"
      ><path d="M0 0 L0 244 L241 244 L241 0 Z"
      /></clipPath
      ><clipPath clipPathUnits="userSpaceOnUse" id="clipPath28"
      ><path d="M0 0 L241 0 L241 137 L0 137 L0 0 Z"
      /></clipPath
      ><clipPath clipPathUnits="userSpaceOnUse" id="clipPath29"
      ><path d="M0 0 L0 137 L241 137 L241 0 Z"
      /></clipPath
      ><clipPath clipPathUnits="userSpaceOnUse" id="clipPath30"
      ><path d="M0 0 L267 0 L267 121 L0 121 L0 0 Z"
      /></clipPath
      ><clipPath clipPathUnits="userSpaceOnUse" id="clipPath31"
      ><path d="M0 0 L0 121 L267 121 L267 0 Z"
      /></clipPath
      ><clipPath clipPathUnits="userSpaceOnUse" id="clipPath32"
      ><path d="M0 0 L315 0 L315 368 L0 368 L0 0 Z"
      /></clipPath
      ><clipPath clipPathUnits="userSpaceOnUse" id="clipPath33"
      ><path d="M0 0 L0 368 L315 368 L315 0 Z"
      /></clipPath
      ><clipPath clipPathUnits="userSpaceOnUse" id="clipPath34"
      ><path d="M0 0 L217 0 L217 104 L0 104 L0 0 Z"
      /></clipPath
      ><clipPath clipPathUnits="userSpaceOnUse" id="clipPath35"
      ><path d="M0 0 L0 104 L217 104 L217 0 Z"
      /></clipPath
      ><clipPath clipPathUnits="userSpaceOnUse" id="clipPath36"
      ><path d="M0 0 L282 0 L282 198 L0 198 L0 0 Z"
      /></clipPath
      ><clipPath clipPathUnits="userSpaceOnUse" id="clipPath37"
      ><path d="M0 0 L0 198 L282 198 L282 0 Z"
      /></clipPath
      ><clipPath clipPathUnits="userSpaceOnUse" id="clipPath38"
      ><path d="M0 0 L431 0 L431 421 L0 421 L0 0 Z"
      /></clipPath
      ><clipPath clipPathUnits="userSpaceOnUse" id="clipPath39"
      ><path d="M0 0 L0 421 L431 421 L431 0 Z"
      /></clipPath
      ><clipPath clipPathUnits="userSpaceOnUse" id="clipPath40"
      ><path d="M0 0 L310 0 L310 213 L0 213 L0 0 Z"
      /></clipPath
      ><clipPath clipPathUnits="userSpaceOnUse" id="clipPath41"
      ><path d="M0 0 L0 213 L310 213 L310 0 Z"
      /></clipPath
      ><clipPath clipPathUnits="userSpaceOnUse" id="clipPath42"
      ><path d="M0 0 L104 0 L104 165 L0 165 L0 0 Z"
      /></clipPath
      ><clipPath clipPathUnits="userSpaceOnUse" id="clipPath43"
      ><path d="M0 0 L0 165 L104 165 L104 0 Z"
      /></clipPath
      ><clipPath clipPathUnits="userSpaceOnUse" id="clipPath44"
      ><path d="M0 0 L183 0 L183 326 L0 326 L0 0 Z"
      /></clipPath
      ><clipPath clipPathUnits="userSpaceOnUse" id="clipPath45"
      ><path d="M0 0 L0 326 L183 326 L183 0 Z"
      /></clipPath
      ><clipPath clipPathUnits="userSpaceOnUse" id="clipPath46"
      ><path d="M0 0 L104 0 L104 170 L0 170 L0 0 Z"
      /></clipPath
      ><clipPath clipPathUnits="userSpaceOnUse" id="clipPath47"
      ><path d="M0 0 L0 170 L104 170 L104 0 Z"
      /></clipPath
    ></defs
    ><g fill="white" text-rendering="geometricPrecision" fill-opacity="1" stroke-opacity="1" stroke="white"
    ><rect x="0" width="760" height="654" y="0" stroke="none"
    /></g
    ><g font-size="11" transform="translate(224,462)" fill-opacity="1" fill="rgb(244,234,154)" text-rendering="geometricPrecision" image-rendering="optimizeQuality" font-family="sans-serif" stroke="rgb(244,234,154)" stroke-opacity="1"
    ><rect x="0" y="0" clip-path="url(#clipPath1)" width="205" rx="12.5" ry="12.5" height="81" stroke="none"
      /><rect x="0" y="20" clip-path="url(#clipPath1)" fill="white" width="205" height="41" stroke="none"
    /></g
    ><g stroke-linecap="butt" font-size="11" transform="translate(224,462)" fill-opacity="1" fill="black" text-rendering="geometricPrecision" image-rendering="optimizeQuality" font-family="sans-serif" stroke-linejoin="round" stroke="black" stroke-opacity="1" stroke-miterlimit="0"
    ><rect x="0" y="0" clip-path="url(#clipPath1)" fill="none" width="205" rx="12.5" ry="12.5" height="81"
      /><line y2="20" fill="none" x1="20" clip-path="url(#clipPath1)" x2="20" y1="0"
      /><line y2="20" fill="none" x1="0" clip-path="url(#clipPath1)" x2="205" y1="20"
      /><line y2="61" fill="none" x1="0" clip-path="url(#clipPath1)" x2="205" y1="61"
    /></g
    ><g font-size="11" transform="translate(224,482)" fill-opacity="1" fill="black" text-rendering="geometricPrecision" image-rendering="optimizeQuality" font-family="sans-serif" stroke="black" stroke-opacity="1"
    ><text x="5" xml:space="preserve" y="25" clip-path="url(#clipPath2)" stroke="none"
      >Upisivanje rezultata zavrsnog testa</text
    ></g
    ><g font-size="11" transform="translate(224,105)" fill-opacity="1" fill="rgb(244,234,154)" text-rendering="geometricPrecision" image-rendering="optimizeQuality" font-family="sans-serif" stroke="rgb(244,234,154)" stroke-opacity="1"
    ><rect x="0" y="0" clip-path="url(#clipPath1)" width="205" rx="12.5" ry="12.5" height="81" stroke="none"
      /><rect x="0" y="20" clip-path="url(#clipPath1)" fill="white" width="205" height="41" stroke="none"
    /></g
    ><g stroke-linecap="butt" font-size="11" transform="translate(224,105)" fill-opacity="1" fill="black" text-rendering="geometricPrecision" image-rendering="optimizeQuality" font-family="sans-serif" stroke-linejoin="round" stroke="black" stroke-opacity="1" stroke-miterlimit="0"
    ><rect x="0" y="0" clip-path="url(#clipPath1)" fill="none" width="205" rx="12.5" ry="12.5" height="81"
      /><line y2="20" fill="none" x1="20" clip-path="url(#clipPath1)" x2="20" y1="0"
      /><line y2="20" fill="none" x1="0" clip-path="url(#clipPath1)" x2="205" y1="20"
      /><line y2="61" fill="none" x1="0" clip-path="url(#clipPath1)" x2="205" y1="61"
    /></g
    ><g font-size="11" transform="translate(224,125)" fill-opacity="1" fill="black" text-rendering="geometricPrecision" image-rendering="optimizeQuality" font-family="sans-serif" stroke="black" stroke-opacity="1"
    ><text x="25" xml:space="preserve" y="25" clip-path="url(#clipPath2)" stroke="none"
      >Pravljenje rasporeda casova</text
    ></g
    ><g font-size="11" transform="translate(224,233)" fill-opacity="1" fill="rgb(244,234,154)" text-rendering="geometricPrecision" image-rendering="optimizeQuality" font-family="sans-serif" stroke="rgb(244,234,154)" stroke-opacity="1"
    ><rect x="0" y="0" clip-path="url(#clipPath1)" width="205" rx="12.5" ry="12.5" height="81" stroke="none"
      /><rect x="0" y="20" clip-path="url(#clipPath1)" fill="white" width="205" height="41" stroke="none"
    /></g
    ><g stroke-linecap="butt" font-size="11" transform="translate(224,233)" fill-opacity="1" fill="black" text-rendering="geometricPrecision" image-rendering="optimizeQuality" font-family="sans-serif" stroke-linejoin="round" stroke="black" stroke-opacity="1" stroke-miterlimit="0"
    ><rect x="0" y="0" clip-path="url(#clipPath1)" fill="none" width="205" rx="12.5" ry="12.5" height="81"
      /><line y2="20" fill="none" x1="20" clip-path="url(#clipPath1)" x2="20" y1="0"
      /><line y2="20" fill="none" x1="0" clip-path="url(#clipPath1)" x2="205" y1="20"
      /><line y2="61" fill="none" x1="0" clip-path="url(#clipPath1)" x2="205" y1="61"
    /></g
    ><g font-size="11" transform="translate(224,253)" fill-opacity="1" fill="black" text-rendering="geometricPrecision" image-rendering="optimizeQuality" font-family="sans-serif" stroke="black" stroke-opacity="1"
    ><text x="15" xml:space="preserve" y="25" clip-path="url(#clipPath2)" stroke="none"
      >Pravljenje rasporeda konsultacija</text
    ></g
    ><g font-size="11" transform="translate(224,353)" fill-opacity="1" fill="rgb(244,234,154)" text-rendering="geometricPrecision" image-rendering="optimizeQuality" font-family="sans-serif" stroke="rgb(244,234,154)" stroke-opacity="1"
    ><rect x="0" y="0" clip-path="url(#clipPath5)" width="205" rx="12.5" ry="12.5" height="70" stroke="none"
      /><rect x="0" y="20" clip-path="url(#clipPath5)" fill="white" width="205" height="30" stroke="none"
    /></g
    ><g stroke-linecap="butt" font-size="11" transform="translate(224,353)" fill-opacity="1" fill="black" text-rendering="geometricPrecision" image-rendering="optimizeQuality" font-family="sans-serif" stroke-linejoin="round" stroke="black" stroke-opacity="1" stroke-miterlimit="0"
    ><rect x="0" y="0" clip-path="url(#clipPath5)" fill="none" width="205" rx="12.5" ry="12.5" height="70"
      /><line y2="20" fill="none" x1="20" clip-path="url(#clipPath5)" x2="20" y1="0"
      /><line y2="20" fill="none" x1="0" clip-path="url(#clipPath5)" x2="205" y1="20"
      /><line y2="50" fill="none" x1="0" clip-path="url(#clipPath5)" x2="205" y1="50"
    /></g
    ><g font-size="11" transform="translate(224,373)" fill-opacity="1" fill="black" text-rendering="geometricPrecision" image-rendering="optimizeQuality" font-family="sans-serif" stroke="black" stroke-opacity="1"
    ><text x="60" xml:space="preserve" y="19" clip-path="url(#clipPath6)" stroke="none"
      >Razmena poruka</text
    ></g
    ><g font-size="11" transform="translate(2,423)" fill-opacity="1" fill="rgb(244,234,154)" text-rendering="geometricPrecision" image-rendering="optimizeQuality" font-family="sans-serif" stroke="rgb(244,234,154)" stroke-opacity="1"
    ><rect x="0" width="116" height="40" y="0" clip-path="url(#clipPath7)" stroke="none"
    /></g
    ><g stroke-linecap="butt" font-size="11" transform="translate(2,423)" fill-opacity="1" fill="black" text-rendering="geometricPrecision" image-rendering="optimizeQuality" font-family="sans-serif" stroke-linejoin="round" stroke="black" stroke-opacity="1" stroke-miterlimit="0"
    ><rect fill="none" x="0" width="116" height="40" y="0" clip-path="url(#clipPath7)"
    /></g
    ><g font-size="11" transform="translate(2,423)" fill-opacity="1" fill="black" text-rendering="geometricPrecision" image-rendering="optimizeQuality" font-family="sans-serif" stroke="black" stroke-opacity="1"
    ><text x="33" xml:space="preserve" y="24" clip-path="url(#clipPath8)" stroke="none"
      >Nastavnik</text
    ></g
    ><g font-size="11" transform="translate(543,421)" fill-opacity="1" fill="rgb(244,234,154)" text-rendering="geometricPrecision" image-rendering="optimizeQuality" font-family="sans-serif" stroke="rgb(244,234,154)" stroke-opacity="1"
    ><rect x="32" width="97" height="41" y="0" clip-path="url(#clipPath9)" stroke="none"
      /><rect x="0" y="0" clip-path="url(#clipPath9)" fill="rgb(206,206,206)" width="32" height="41" stroke="none"
    /></g
    ><g stroke-linecap="butt" font-size="11" transform="translate(543,421)" fill-opacity="1" fill="black" text-rendering="geometricPrecision" image-rendering="optimizeQuality" font-family="sans-serif" stroke-linejoin="round" stroke="black" stroke-opacity="1" stroke-miterlimit="0"
    ><line y2="0" fill="none" x1="0" clip-path="url(#clipPath9)" x2="129" y1="0"
      /><line y2="41" fill="none" x1="0" clip-path="url(#clipPath9)" x2="0" y1="0"
      /><line y2="41" fill="none" x1="0" clip-path="url(#clipPath9)" x2="129" y1="41"
      /><line y2="41" fill="none" x1="32" clip-path="url(#clipPath9)" x2="32" y1="0"
    /></g
    ><g font-size="11" transform="translate(575,421)" fill-opacity="1" fill="black" text-rendering="geometricPrecision" image-rendering="optimizeQuality" font-family="sans-serif" stroke="black" stroke-opacity="1"
    ><text x="12" xml:space="preserve" y="25" clip-path="url(#clipPath10)" stroke="none"
      >Baza podataka</text
    ></g
    ><g font-size="11" transform="translate(543,421)" fill-opacity="1" fill="black" text-rendering="geometricPrecision" image-rendering="optimizeQuality" font-family="sans-serif" stroke="black" stroke-opacity="1"
    ><text x="12" xml:space="preserve" y="12" clip-path="url(#clipPath11)" stroke="none"
      >D</text
    ></g
    ><g font-size="11" transform="translate(543,253)" fill-opacity="1" fill="rgb(244,234,154)" text-rendering="geometricPrecision" image-rendering="optimizeQuality" font-family="sans-serif" stroke="rgb(244,234,154)" stroke-opacity="1"
    ><rect x="0" width="129" height="40" y="0" clip-path="url(#clipPath12)" stroke="none"
    /></g
    ><g stroke-linecap="butt" font-size="11" transform="translate(543,253)" fill-opacity="1" fill="black" text-rendering="geometricPrecision" image-rendering="optimizeQuality" font-family="sans-serif" stroke-linejoin="round" stroke="black" stroke-opacity="1" stroke-miterlimit="0"
    ><rect fill="none" x="0" width="129" height="40" y="0" clip-path="url(#clipPath12)"
    /></g
    ><g font-size="11" transform="translate(543,253)" fill-opacity="1" fill="black" text-rendering="geometricPrecision" image-rendering="optimizeQuality" font-family="sans-serif" stroke="black" stroke-opacity="1"
    ><text x="32" xml:space="preserve" y="24" clip-path="url(#clipPath13)" stroke="none"
      >Administrator</text
    ></g
    ><g font-size="11" transform="translate(28,314)" fill-opacity="1" fill="rgb(244,234,154)" text-rendering="geometricPrecision" image-rendering="optimizeQuality" font-family="sans-serif" stroke="rgb(244,234,154)" stroke-opacity="1"
    ><rect x="0" width="116" height="40" y="0" clip-path="url(#clipPath7)" stroke="none"
    /></g
    ><g stroke-linecap="butt" font-size="11" transform="translate(28,314)" fill-opacity="1" fill="black" text-rendering="geometricPrecision" image-rendering="optimizeQuality" font-family="sans-serif" stroke-linejoin="round" stroke="black" stroke-opacity="1" stroke-miterlimit="0"
    ><rect fill="none" x="0" width="116" height="40" y="0" clip-path="url(#clipPath7)"
    /></g
    ><g font-size="11" transform="translate(28,314)" fill-opacity="1" fill="black" text-rendering="geometricPrecision" image-rendering="optimizeQuality" font-family="sans-serif" stroke="black" stroke-opacity="1"
    ><text x="39" xml:space="preserve" y="24" clip-path="url(#clipPath8)" stroke="none"
      >Roditelj</text
    ></g
    ><g font-size="11" transform="translate(28,186)" fill-opacity="1" fill="rgb(244,234,154)" text-rendering="geometricPrecision" image-rendering="optimizeQuality" font-family="sans-serif" stroke="rgb(244,234,154)" stroke-opacity="1"
    ><rect x="0" width="116" height="40" y="0" clip-path="url(#clipPath7)" stroke="none"
    /></g
    ><g stroke-linecap="butt" font-size="11" transform="translate(28,186)" fill-opacity="1" fill="black" text-rendering="geometricPrecision" image-rendering="optimizeQuality" font-family="sans-serif" stroke-linejoin="round" stroke="black" stroke-opacity="1" stroke-miterlimit="0"
    ><rect fill="none" x="0" width="116" height="40" y="0" clip-path="url(#clipPath7)"
    /></g
    ><g font-size="11" transform="translate(28,186)" fill-opacity="1" fill="black" text-rendering="geometricPrecision" image-rendering="optimizeQuality" font-family="sans-serif" stroke="black" stroke-opacity="1"
    ><text x="41" xml:space="preserve" y="24" clip-path="url(#clipPath8)" stroke="none"
      >Ucenik</text
    ></g
    ><g font-size="11" transform="translate(274,2)" fill-opacity="1" fill="rgb(244,234,154)" text-rendering="geometricPrecision" image-rendering="optimizeQuality" font-family="sans-serif" stroke="rgb(244,234,154)" stroke-opacity="1"
    ><rect x="0" width="105" height="40" y="0" clip-path="url(#clipPath14)" stroke="none"
    /></g
    ><g stroke-linecap="butt" font-size="11" transform="translate(274,2)" fill-opacity="1" fill="black" text-rendering="geometricPrecision" image-rendering="optimizeQuality" font-family="sans-serif" stroke-linejoin="round" stroke="black" stroke-opacity="1" stroke-miterlimit="0"
    ><rect fill="none" x="0" width="105" height="40" y="0" clip-path="url(#clipPath14)"
    /></g
    ><g font-size="11" transform="translate(274,2)" fill-opacity="1" fill="black" text-rendering="geometricPrecision" image-rendering="optimizeQuality" font-family="sans-serif" stroke="black" stroke-opacity="1"
    ><text x="9" xml:space="preserve" y="24" clip-path="url(#clipPath15)" stroke="none"
      >Raspored casova</text
    ></g
    ><g font-size="11" transform="translate(54,2)" fill-opacity="1" fill="rgb(244,234,154)" text-rendering="geometricPrecision" image-rendering="optimizeQuality" font-family="sans-serif" stroke="rgb(244,234,154)" stroke-opacity="1"
    ><rect x="0" width="90" height="40" y="0" clip-path="url(#clipPath16)" stroke="none"
    /></g
    ><g stroke-linecap="butt" font-size="11" transform="translate(54,2)" fill-opacity="1" fill="black" text-rendering="geometricPrecision" image-rendering="optimizeQuality" font-family="sans-serif" stroke-linejoin="round" stroke="black" stroke-opacity="1" stroke-miterlimit="0"
    ><rect fill="none" x="0" width="90" height="40" y="0" clip-path="url(#clipPath16)"
    /></g
    ><g font-size="11" transform="translate(54,2)" fill-opacity="1" fill="black" text-rendering="geometricPrecision" image-rendering="optimizeQuality" font-family="sans-serif" stroke="black" stroke-opacity="1"
    ><text x="20" xml:space="preserve" y="17" clip-path="url(#clipPath17)" stroke="none"
      >Raspored</text
      ><text x="15" xml:space="preserve" y="32" clip-path="url(#clipPath17)" stroke="none"
      >konsultacija</text
    ></g
    ><g font-size="11" transform="translate(254,610)" fill-opacity="1" fill="rgb(244,234,154)" text-rendering="geometricPrecision" image-rendering="optimizeQuality" font-family="sans-serif" stroke="rgb(244,234,154)" stroke-opacity="1"
    ><rect x="0" width="144" height="40" y="0" clip-path="url(#clipPath18)" stroke="none"
    /></g
    ><g stroke-linecap="butt" font-size="11" transform="translate(254,610)" fill-opacity="1" fill="black" text-rendering="geometricPrecision" image-rendering="optimizeQuality" font-family="sans-serif" stroke-linejoin="round" stroke="black" stroke-opacity="1" stroke-miterlimit="0"
    ><rect fill="none" x="0" width="144" height="40" y="0" clip-path="url(#clipPath18)"
    /></g
    ><g font-size="11" transform="translate(254,610)" fill-opacity="1" fill="black" text-rendering="geometricPrecision" image-rendering="optimizeQuality" font-family="sans-serif" stroke="black" stroke-opacity="1"
    ><text x="12" xml:space="preserve" y="24" clip-path="url(#clipPath19)" stroke="none"
      >Rezultati zavrsnog testa</text
    ></g
    ><g stroke-linecap="butt" font-size="11" transform="translate(10,414)" fill-opacity="1" fill="black" text-rendering="geometricPrecision" image-rendering="optimizeQuality" font-family="sans-serif" stroke-linejoin="round" stroke="black" stroke-opacity="1"
    ><path fill="none" d="M50 50 L50 81 C50 81 50 88 57 88 M57 88 L213 88" clip-path="url(#clipPath21)"
      /><line y2="82" fill="none" x1="213" clip-path="url(#clipPath21)" x2="201" y1="88"
      /><line y2="94" fill="none" x1="213" clip-path="url(#clipPath21)" x2="201" y1="88"
    /></g
    ><g stroke-linecap="butt" font-size="11" transform="translate(379,413)" fill-opacity="1" fill="black" text-rendering="geometricPrecision" image-rendering="optimizeQuality" font-family="sans-serif" stroke-linejoin="round" stroke="black" stroke-opacity="1"
    ><path fill="none" d="M50 89 L221 89 C221 89 228 89 228 82 M228 82 L228 50" clip-path="url(#clipPath23)"
      /><line y2="95" fill="none" x1="50" clip-path="url(#clipPath23)" x2="62" y1="89"
      /><line y2="83" fill="none" x1="50" clip-path="url(#clipPath23)" x2="62" y1="89"
      /><line y2="62" fill="none" x1="228" clip-path="url(#clipPath23)" x2="222" y1="50"
      /><line y2="62" fill="none" x1="228" clip-path="url(#clipPath23)" x2="234" y1="50"
    /></g
    ><g stroke-linecap="butt" font-size="11" transform="translate(379,338)" fill-opacity="1" fill="black" text-rendering="geometricPrecision" image-rendering="optimizeQuality" font-family="sans-serif" stroke-linejoin="round" stroke="black" stroke-opacity="1"
    ><path fill="none" d="M50 50 L221 50 C221 50 228 50 228 57 M228 57 L228 82" clip-path="url(#clipPath25)"
      /><line y2="56" fill="none" x1="50" clip-path="url(#clipPath25)" x2="62" y1="50"
      /><line y2="44" fill="none" x1="50" clip-path="url(#clipPath25)" x2="62" y1="50"
      /><line y2="70" fill="none" x1="228" clip-path="url(#clipPath25)" x2="234" y1="82"
      /><line y2="70" fill="none" x1="228" clip-path="url(#clipPath25)" x2="222" y1="82"
    /></g
    ><g stroke-linecap="butt" font-size="11" transform="translate(36,177)" fill-opacity="1" fill="black" text-rendering="geometricPrecision" image-rendering="optimizeQuality" font-family="sans-serif" stroke-linejoin="round" stroke="black" stroke-opacity="1"
    ><path fill="none" d="M50 50 L50 89 C50 89 50 96 57 96 M57 96 L113 96 C113 96 120 96 120 103 M120 103 L120 183 C120 183 120 190 127 190 M127 190 L187 190" clip-path="url(#clipPath27)"
      /><line y2="62" fill="none" x1="50" clip-path="url(#clipPath27)" x2="44" y1="50"
      /><line y2="62" fill="none" x1="50" clip-path="url(#clipPath27)" x2="56" y1="50"
      /><line y2="184" fill="none" x1="187" clip-path="url(#clipPath27)" x2="175" y1="190"
      /><line y2="196" fill="none" x1="187" clip-path="url(#clipPath27)" x2="175" y1="190"
    /></g
    ><g stroke-linecap="butt" font-size="11" transform="translate(36,305)" fill-opacity="1" fill="black" text-rendering="geometricPrecision" image-rendering="optimizeQuality" font-family="sans-serif" stroke-linejoin="round" stroke="black" stroke-opacity="1"
    ><path fill="none" d="M50 50 L50 76 C50 76 50 83 57 83 M57 83 L187 83" clip-path="url(#clipPath29)"
      /><line y2="62" fill="none" x1="50" clip-path="url(#clipPath29)" x2="44" y1="50"
      /><line y2="62" fill="none" x1="50" clip-path="url(#clipPath29)" x2="56" y1="50"
      /><line y2="77" fill="none" x1="187" clip-path="url(#clipPath29)" x2="175" y1="83"
      /><line y2="89" fill="none" x1="187" clip-path="url(#clipPath29)" x2="175" y1="83"
    /></g
    ><g stroke-linecap="butt" font-size="11" transform="translate(10,355)" fill-opacity="1" fill="black" text-rendering="geometricPrecision" image-rendering="optimizeQuality" font-family="sans-serif" stroke-linejoin="round" stroke="black" stroke-opacity="1"
    ><path fill="none" d="M50 67 L50 57 C50 57 50 50 57 50 M57 50 L213 50" clip-path="url(#clipPath31)"
      /><line y2="55" fill="none" x1="50" clip-path="url(#clipPath31)" x2="56" y1="67"
      /><line y2="55" fill="none" x1="50" clip-path="url(#clipPath31)" x2="44" y1="67"
      /><line y2="44" fill="none" x1="213" clip-path="url(#clipPath31)" x2="201" y1="50"
      /><line y2="56" fill="none" x1="213" clip-path="url(#clipPath31)" x2="201" y1="50"
    /></g
    ><g stroke-linecap="butt" font-size="11" transform="translate(-38,108)" fill-opacity="1" fill="black" text-rendering="geometricPrecision" image-rendering="optimizeQuality" font-family="sans-serif" stroke-linejoin="round" stroke="black" stroke-opacity="1"
    ><path fill="none" d="M50 314 L50 57 C50 57 50 50 57 50 M57 50 L200 50 C200 50 207 50 207 57 M207 57 L207 158 C207 158 207 165 214 165 M214 165 L261 165" clip-path="url(#clipPath33)"
      /><line y2="302" fill="none" x1="50" clip-path="url(#clipPath33)" x2="56" y1="314"
      /><line y2="302" fill="none" x1="50" clip-path="url(#clipPath33)" x2="44" y1="314"
      /><line y2="159" fill="none" x1="261" clip-path="url(#clipPath33)" x2="249" y1="165"
      /><line y2="171" fill="none" x1="261" clip-path="url(#clipPath33)" x2="249" y1="165"
    /></g
    ><g stroke-linecap="butt" font-size="11" transform="translate(379,228)" fill-opacity="1" fill="black" text-rendering="geometricPrecision" image-rendering="optimizeQuality" font-family="sans-serif" stroke-linejoin="round" stroke="black" stroke-opacity="1"
    ><line y2="50" fill="none" x1="163" clip-path="url(#clipPath35)" x2="50" y1="50"
      /><line y2="56" fill="none" x1="50" clip-path="url(#clipPath35)" x2="62" y1="50"
      /><line y2="44" fill="none" x1="50" clip-path="url(#clipPath35)" x2="62" y1="50"
    /></g
    ><g stroke-linecap="butt" font-size="11" transform="translate(379,108)" fill-opacity="1" fill="black" text-rendering="geometricPrecision" image-rendering="optimizeQuality" font-family="sans-serif" stroke-linejoin="round" stroke="black" stroke-opacity="1"
    ><path fill="none" d="M228 144 L228 57 C228 57 228 50 221 50 M221 50 L50 50" clip-path="url(#clipPath37)"
      /><line y2="56" fill="none" x1="50" clip-path="url(#clipPath37)" x2="62" y1="50"
      /><line y2="44" fill="none" x1="50" clip-path="url(#clipPath37)" x2="62" y1="50"
    /></g
    ><g stroke-linecap="butt" font-size="11" transform="translate(379,77)" fill-opacity="1" fill="black" text-rendering="geometricPrecision" image-rendering="optimizeQuality" font-family="sans-serif" stroke-linejoin="round" stroke="black" stroke-opacity="1"
    ><path fill="none" d="M50 50 L370 50 C370 50 377 50 377 57 M377 57 L377 360 C377 360 377 367 370 367 M370 367 L294 367" clip-path="url(#clipPath39)"
      /><line y2="373" fill="none" x1="294" clip-path="url(#clipPath39)" x2="306" y1="367"
      /><line y2="361" fill="none" x1="294" clip-path="url(#clipPath39)" x2="306" y1="367"
    /></g
    ><g stroke-linecap="butt" font-size="11" transform="translate(375,261)" fill-opacity="1" fill="black" text-rendering="geometricPrecision" image-rendering="optimizeQuality" font-family="sans-serif" stroke-linejoin="round" stroke="black" stroke-opacity="1"
    ><path fill="none" d="M50 50 L249 50 C249 50 256 50 256 57 M256 57 L256 159" clip-path="url(#clipPath41)"
      /><line y2="147" fill="none" x1="256" clip-path="url(#clipPath41)" x2="262" y1="159"
      /><line y2="147" fill="none" x1="256" clip-path="url(#clipPath41)" x2="250" y1="159"
    /></g
    ><g stroke-linecap="butt" font-size="11" transform="translate(276,-7)" fill-opacity="1" fill="black" text-rendering="geometricPrecision" image-rendering="optimizeQuality" font-family="sans-serif" stroke-linejoin="round" stroke="black" stroke-opacity="1"
    ><line y2="50" fill="none" x1="50" clip-path="url(#clipPath43)" x2="50" y1="111"
      /><line y2="62" fill="none" x1="50" clip-path="url(#clipPath43)" x2="44" y1="50"
      /><line y2="62" fill="none" x1="50" clip-path="url(#clipPath43)" x2="56" y1="50"
    /></g
    ><g stroke-linecap="butt" font-size="11" transform="translate(95,-28)" fill-opacity="1" fill="black" text-rendering="geometricPrecision" image-rendering="optimizeQuality" font-family="sans-serif" stroke-linejoin="round" stroke="black" stroke-opacity="1"
    ><path fill="none" d="M129 272 L106 272 C106 272 99 272 99 265 M99 265 L99 57 C99 57 99 50 92 50 M92 50 L50 50" clip-path="url(#clipPath45)"
      /><line y2="56" fill="none" x1="50" clip-path="url(#clipPath45)" x2="62" y1="50"
      /><line y2="44" fill="none" x1="50" clip-path="url(#clipPath45)" x2="62" y1="50"
    /></g
    ><g stroke-linecap="butt" font-size="11" transform="translate(276,493)" fill-opacity="1" fill="black" text-rendering="geometricPrecision" image-rendering="optimizeQuality" font-family="sans-serif" stroke-linejoin="round" stroke="black" stroke-opacity="1"
    ><line y2="116" fill="none" x1="50" clip-path="url(#clipPath47)" x2="50" y1="50"
      /><line y2="104" fill="none" x1="50" clip-path="url(#clipPath47)" x2="56" y1="116"
      /><line y2="104" fill="none" x1="50" clip-path="url(#clipPath47)" x2="44" y1="116"
    /></g
    ></g
></svg
>
